{ "startingOrderId" : 75000000,
  "endingOrderId" : 99000000,
  "sessions" :
  [{ "id" : "0002",
     "addr" : {"host": "{OE_ADDRESS}", "port" : 1330{OE_P2}, "interface": "{OE_INTERFACE}", "type" : "tcp", "venue" : "arca", "purpose" : "OEC"},
    "user" : "test",
    "password" : "test"
  }]  
}
